<svg width="25" height="24" viewBox="0 0 25 24" fill="none" xmlns="http://www.w3.org/2000/svg">
<circle cx="12.5999" cy="12" r="8" fill="#0D121C" stroke="#0D121C" stroke-width="2"/>
<path fill-rule="evenodd" clip-rule="evenodd" d="M8.09985 13.25C8.79021 13.25 9.34985 12.6904 9.34985 12C9.34985 11.3096 8.79021 10.75 8.09985 10.75C7.4095 10.75 6.84985 11.3096 6.84985 12C6.84985 12.6904 7.4095 13.25 8.09985 13.25ZM13.8499 12C13.8499 12.6904 13.2902 13.25 12.5999 13.25C11.9095 13.25 11.3499 12.6904 11.3499 12C11.3499 11.3096 11.9095 10.75 12.5999 10.75C13.2902 10.75 13.8499 11.3096 13.8499 12ZM18.3499 12C18.3499 12.6904 17.7902 13.25 17.0999 13.25C16.4095 13.25 15.8499 12.6904 15.8499 12C15.8499 11.3096 16.4095 10.75 17.0999 10.75C17.7902 10.75 18.3499 11.3096 18.3499 12Z" fill="white"/>
</svg>
